%YAML 1.1
%TAG !u! tag:unity3d.com,2011:
--- !u!21 &2100000
Material:
  serializedVersion: 6
  m_ObjectHideFlags: 0
  m_CorrespondingSourceObject: {fileID: 0}
  m_PrefabInternal: {fileID: 0}
  m_Name: TCP2_Demo ethan_hair
  m_Shader: {fileID: 4, guid: 0000000000000000f000000000000000, type: 0}
  m_ShaderKeywords: OUTLINES TCP2_BUMP TCP2_OUTLINE_TEXTURED TCP2_REFLECTION_MASKED
    TCP2_RIMO TCP2_SPEC TCP2_ZSMOOTH_ON
  m_LightmapFlags: 5
  m_EnableInstancingVariants: 0
  m_DoubleSidedGI: 0
  m_CustomRenderQueue: -1
  stringTagMap: {}
  disabledShaderPasses: []
  m_SavedProperties:
    serializedVersion: 3
    m_TexEnvs:
    - _BumpMap:
        m_Texture: {fileID: 2800000, guid: f67246903fd040d4088ff49217db46e2, type: 3}
        m_Scale: {x: 1, y: 1}
        m_Offset: {x: 0, y: 0}
    - _Cube:
        m_Texture: {fileID: 8900000, guid: 32cf25e1cd773ef43b3930a506e1b214, type: 2}
        m_Scale: {x: 1, y: 1}
        m_Offset: {x: 0, y: 0}
    - _MainTex:
        m_Texture: {fileID: 2800000, guid: b78ac37dee50c634586905682eb10891, type: 3}
        m_Scale: {x: 1, y: 1}
        m_Offset: {x: 0, y: 0}
    - _Ramp:
        m_Texture: {fileID: 2800000, guid: abc83c21d57d4a74cabe12065fa1a8b2, type: 3}
        m_Scale: {x: 1, y: 1}
        m_Offset: {x: 0, y: 0}
    m_Floats:
    - _DstBlendOutline: 10
    - _Offset1: 0
    - _Offset2: 0
    - _Outline: 0.2
    - _RampSmooth: 0.15
    - _RampThreshold: 0.55
    - _RimMax: 1
    - _RimMin: 0.5
    - _Shininess: 0.011533325
    - _SpecSmooth: 0.05
    - _SrcBlendOutline: 5
    - _TexLod: 0
    - _ZSmooth: -0.5
    m_Colors:
    - _Color: {r: 1, g: 1, b: 1, a: 1}
    - _HColor: {r: 1, g: 1, b: 1, a: 1}
    - _OutlineColor: {r: 0.86764705, g: 0.86764705, b: 0.86764705, a: 1}
    - _ReflectColor: {r: 1, g: 1, b: 1, a: 1}
    - _RimColor: {r: 1, g: 1, b: 1, a: 0.25}
    - _RimDir: {r: 0, g: 0, b: 1, a: 0}
    - _SColor: {r: 0.53676474, g: 0.38443214, b: 0.33942476, a: 1}
    - _SpecColor: {r: 1, g: 0.7241379, b: 0, a: 1}
